<?xml version="1.0" encoding="utf-8"?>
<!-- Generator: Adobe Illustrator 21.0.2, SVG Export Plug-In . SVG Version: 6.00 Build 0)  -->
<svg version="1.1" id="Ebene_1" xmlns="http://www.w3.org/2000/svg" xmlns:xlink="http://www.w3.org/1999/xlink" x="0px" y="0px"
	 viewBox="0 0 120 90" style="enable-background:new 0 0 120 90;" xml:space="preserve">
<style type="text/css">
	.st0{fill:#E63264;}
</style>
<g>
	<path class="st0" d="M56.7,35.7c-1.3,0.3-7-0.2-10-1.4c0.2,1.4,0.1,5.9-0.8,8.3c0,0,6.4,0.9,8.8,3.4c-1.6,2.2-4.5,3.2-4.5,3.2
		c-1.4-0.1-8.5-1.9-11.4-2.5l-0.3-2.5l1.6-7.3l0.5-15.4l0.8-7c0,0,2.9-1.1,4.8-1.3c2.9-0.3,6.4,1.2,7.3,1.4c0.4,0.8,0.6,1.4,0.6,1.9
		c0,1.6-5.5,2.4-6.2,2.2L47,27.8c1.6,0.6,2.8,1,3.7,1.3c3.3,0.6,5,1,5.3,1.1c0.5,0.3,1.9,1,2.2,2.2C58.5,33.8,56.7,35.7,56.7,35.7z"
		/>
	<path class="st0" d="M87.9,47.7c0,0-7.9,0.4-12.7,2c-2.1,0.7-4.8,2.1-5.3,2.1c-2,0-3-0.8-4.6-3.1l1.6-3.2l-0.4-32
		c0,0,1.1-2.1,2.4-2.5c2.4-0.7,4,1.6,4,5c0,1,0.3,18.8,0.3,18.8L73,43.6c0,0,9.8-0.9,10.7-0.9c3.2,0,4.7,1.2,4.7,3.5
		C88.5,47,88.2,47.6,87.9,47.7z"/>
</g>
<g>
	<path class="st0" d="M37,68l-1.5,0.2c-0.1,2.1-0.3,3.1,1,3.9s2.8-2.8,2.8-2.8s0.8-0.2,1.2,0c0.5,0.3,0.6,1,0.6,1.3
		c0,0.4-0.6,1.3-1.2,2c-1.2,1.3-3.1,2.1-4,2.1c-0.8,0-1.5-0.7-2.3-2.3c0,0-1-2.4-1-3.9c0.1-1.3,0.9-3.3,0.9-3.3c1-2.1,2.2-3,4.4-3
		c1.9,0,3.5,1.4,3.5,3C41.4,67,39.7,68,37,68z M38.7,64.5c-0.2-0.4-0.7-0.3-1.2-0.2c-0.6,0.1-1.1,0.5-1.3,1.1
		c-0.1,0.3-0.1,0.7-0.1,0.7c1.2-0.2,1.9-0.3,2.6-0.9C38.7,65.2,38.9,64.7,38.7,64.5z"/>
	<path class="st0" d="M53.5,70c-1.9,2.8-2.2,3-4.6,3.2l0.3,1.2c0.5-0.1,1-0.1,1.5-0.1c0.8,0,1.3,0.1,2.5,0.7c-0.2,1-0.6,1.8-1,2.1
		c-0.1,0.1-1.9,0.5-2.2,0.5c-2.1,0-3.2-1.4-3.2-4.4c-2.9-0.6-4.4-2.1-4.4-4.1c0-2.3,1.9-5.1,4.5-6.4c0.8-0.5,1.5-0.6,2.3-0.6
		c3.1,0,5.7,1.9,5.7,4.2C54.9,67.7,54.8,68.2,53.5,70z M51.2,64.3c-2.2-0.9-4.4-0.1-5.7,1.8c-0.6,0.9-0.8,2-0.8,2.6
		c0,1.6,1.1,2.5,3.1,2.5c2.6,0,3.8-1.4,5.1-5.7C52.3,64.6,51.9,64.6,51.2,64.3z"/>
	<path class="st0" d="M63,72.4c-0.7,0.4-1.5,0.6-2.3,0.6c-2.6,0-4.5-2.2-4.5-5.1c0-0.5,0-1.2,0.1-1.8c0.5-0.2,0.7-0.3,1.1-0.3
		c0.6,0,0.9,0.2,1.5,0.5c0,0,0.8,4.2,2.2,4.2c1.7,0,2.5-1.9,2.5-5.7c0,0,0.6-0.8,1.1-0.9c1.2-0.3,2.1,1.1,2.1,2.3
		C66.9,68.5,65.2,71.1,63,72.4z"/>
	<path class="st0" d="M72,77.3c-0.6,0.2-1.1,0.3-1.5,0.3c-0.5,0-0.8-0.3-1.2-1.4c0,0,0.7-5.7,0.7-7.3c0-0.7-0.5-3.2-0.5-3.4
		c0-0.6,0.5-1.2,1.2-1.2c0.4,0,0.8,0.1,1.5,0.5l0.2,1.1L72,77.3z M71.5,62.1c-0.7,0-1.2-0.5-1.2-1.2c0-0.8,0.7-1.4,1.4-1.4
		c0.4,0,0.7,0.1,1.3,0.6c0,0.3,0,0.6,0,0.9C73,61.9,72.7,62.1,71.5,62.1z"/>
	<path class="st0" d="M78.3,70.2v5.9c0,0-0.3,0.5-0.7,0.7c-0.6,0.3-1.2,0.5-1.7,0c-0.3-0.2-0.4-0.8-0.4-0.8l0.1-3.9l0.1-5.4
		c0-0.3,1.1-1.9,2.2-2.5c0.6-0.3,1.1-0.5,1.7-0.5c1.6,0,2.6,1.3,2.6,3.1C82.3,68.9,81.1,69.9,78.3,70.2z M79.5,65.9
		c-0.4-0.2-0.5,0.4-0.8,0.8s-0.5,1.2-0.5,1.2l0.3,0.3c0,0,0.6-0.3,0.9-0.7c0.3-0.4,0.4-1.4,0.4-1.4S79.7,65.9,79.5,65.9z"/>
	<path class="st0" d="M87.1,73.5c-2.1,0-3.8-2.2-3.8-4.7c0-2.9,2.3-5.2,5-5.2c1.3,0,2.1,0.5,3.4,2H92c0.3,1.1,0.6,1.7,0.5,2.8
		C92.2,71.2,88.8,73.5,87.1,73.5z M88.6,65.8c-0.9-0.1-1.2,0.7-1.7,1.5c-0.4,0.7-0.5,1.5-0.5,1.9c0,0.6,0.4,1.1,1.4,2.1
		c1.5-1,2-1.7,2-3.1C89.7,67.1,89.6,65.9,88.6,65.8z"/>
</g>
<g>
	<path class="st0" d="M93.6,86.7c-0.1-1.1,0.9-2.1,1.5-2s1.5,1,1.4,1.9s-1.1,1.1-1.6,1.1C94.3,87.7,93.6,87.4,93.6,86.7"/>
	<path class="st0" d="M100.6,85.9c-0.1,1.6,0.9,2,1.8,2.1s1.1-1.1,1.2-1.8c0.1-0.6-0.5-1.3-1.5-1.3
		C101.2,84.9,100.6,85.3,100.6,85.9"/>
	<path class="st0" d="M107.5,86.2c-0.2,1.7,0.8,2,1.4,2.1c0.7,0.1,1.3-1.1,1.3-1.7s-0.1-1.4-1.2-1.4
		C107.9,85.2,107.6,85.5,107.5,86.2"/>
	<path class="st0" d="M11.3,85.9c-0.1,1.2,0.8,1.8,1.4,1.8c0.6,0.1,1.1-0.8,1.2-1.7c0.1-0.9-0.8-0.8-1.4-0.9
		C11.9,85.1,11.4,85.2,11.3,85.9"/>
	<path class="st0" d="M41.6,86.1c0.1,1.1-0.9,2.1-1.5,2s-1.5-1-1.4-1.9s1.1-1.1,1.6-1.1C40.8,85.1,41.5,85.4,41.6,86.1"/>
	<path class="st0" d="M34.6,86.9c0.1-1.6-0.9-2-1.8-2.1c-0.9-0.1-1.1,1.1-1.2,1.8c-0.1,0.6,0.5,1.3,1.5,1.3
		C34,87.9,34.5,87.5,34.6,86.9"/>
	<path class="st0" d="M27.6,86.6c0.2-1.7-0.8-2-1.4-2.1c-0.7-0.1-1.3,1.1-1.3,1.7s0.1,1.4,1.2,1.4C27.3,87.6,27.6,87.3,27.6,86.6"/>
	<path class="st0" d="M21.1,86.9c0.1-1.2-0.8-1.8-1.4-1.8c-0.6-0.1-1.1,0.8-1.2,1.7c-0.1,0.9,0.8,0.8,1.4,0.9
		C20.5,87.7,21,87.6,21.1,86.9"/>
	<path class="st0" d="M89.8,85.9c0.1,1.6-0.9,2-1.8,2.1s-1.1-1.1-1.2-1.8c-0.1-0.6,0.5-1.3,1.5-1.3C89.2,84.9,89.7,85.3,89.8,85.9"
		/>
	<path class="st0" d="M82.9,86.2c0.2,1.7-0.8,2-1.4,2.1c-0.7,0.1-1.3-1.1-1.3-1.7s0.1-1.4,1.2-1.4C82.5,85.2,82.8,85.5,82.9,86.2"/>
	<path class="st0" d="M76.3,85.9c0.1,1.2-0.8,1.8-1.4,1.8c-0.6,0.1-1.1-0.8-1.2-1.7c-0.1-0.9,0.8-0.8,1.4-0.9
		C75.7,85.1,76.3,85.2,76.3,85.9"/>
	<path class="st0" d="M46,86.1c-0.1,1.1,0.9,2.1,1.5,2s1.5-1,1.4-1.9s-1.1-1.1-1.6-1.1C46.8,85.1,46.1,85.4,46,86.1"/>
	<path class="st0" d="M53.1,86.9c-0.1-1.6,0.9-2,1.8-2.1c0.9-0.1,1.1,1.1,1.2,1.8c0.1,0.6-0.5,1.3-1.5,1.3
		C53.6,87.9,53.1,87.5,53.1,86.9"/>
	<path class="st0" d="M60,86.6c-0.2-1.7,0.8-2,1.4-2.1c0.7-0.1,1.3,1.1,1.3,1.7s-0.1,1.4-1.2,1.4C60.4,87.6,60,87.3,60,86.6"/>
	<path class="st0" d="M66.5,86.9c-0.1-1.2,0.8-1.8,1.4-1.8c0.6-0.1,1.1,0.8,1.2,1.7c0.1,0.9-0.8,0.8-1.4,0.9
		C67.1,87.7,66.6,87.6,66.5,86.9"/>
</g>
<polygon class="st0" points="8.8,5.4 17.4,5.5 17.2,2.9 8.8,2.8 "/>
<polygon class="st0" points="102.8,5.4 111.3,5.5 111.1,2.9 102.8,2.7 "/>
<polygon class="st0" points="21.8,5.4 29.9,5.4 30.1,3.5 21.8,2.8 "/>
<polygon class="st0" points="88.8,5.4 97,5.4 97.1,3.5 88.8,2.7 "/>
<polygon class="st0" points="35.7,5.4 41.5,5.4 41.3,3.6 34.6,3.6 "/>
<polygon class="st0" points="48.5,5.4 56.5,5.4 56.2,3.6 48.1,3.2 "/>
<polygon class="st0" points="61.8,5.4 70.2,5.4 69.4,3.6 61.8,3.6 "/>
<polygon class="st0" points="75,2.8 75.6,4.9 83.9,5.1 83.4,2.7 "/>
</svg>
