<?xml version="1.0" encoding="utf-8"?>
<!-- Generator: Adobe Illustrator 21.0.2, SVG Export Plug-In . SVG Version: 6.00 Build 0)  -->
<svg version="1.1" id="Ebene_1" xmlns="http://www.w3.org/2000/svg" xmlns:xlink="http://www.w3.org/1999/xlink" x="0px" y="0px"
	 viewBox="0 0 120 90" style="enable-background:new 0 0 120 90;" xml:space="preserve">
<style type="text/css">
	.st0{fill:#E63264;}
</style>
<g>
	<path class="st0" d="M93.6,86.7c-0.1-1.1,0.9-2.1,1.5-2s1.5,1,1.4,1.9s-1.1,1.1-1.6,1.1C94.3,87.7,93.6,87.4,93.6,86.7"/>
	<path class="st0" d="M100.6,85.9c-0.1,1.6,0.9,2,1.8,2.1s1.1-1.1,1.2-1.8c0.1-0.6-0.5-1.3-1.5-1.3
		C101.2,84.9,100.6,85.3,100.6,85.9"/>
	<path class="st0" d="M107.5,86.2c-0.2,1.7,0.8,2,1.4,2.1c0.7,0.1,1.3-1.1,1.3-1.7s-0.1-1.4-1.2-1.4
		C107.9,85.2,107.6,85.5,107.5,86.2"/>
	<path class="st0" d="M11.3,85.9c-0.1,1.2,0.8,1.8,1.4,1.8c0.6,0.1,1.1-0.8,1.2-1.7c0.1-0.9-0.8-0.8-1.4-0.9
		C11.9,85.1,11.4,85.2,11.3,85.9"/>
	<path class="st0" d="M41.6,86.1c0.1,1.1-0.9,2.1-1.5,2s-1.5-1-1.4-1.9s1.1-1.1,1.6-1.1C40.8,85.1,41.5,85.4,41.6,86.1"/>
	<path class="st0" d="M34.6,86.9c0.1-1.6-0.9-2-1.8-2.1c-0.9-0.1-1.1,1.1-1.2,1.8c-0.1,0.6,0.5,1.3,1.5,1.3
		C34,87.9,34.5,87.5,34.6,86.9"/>
	<path class="st0" d="M27.6,86.6c0.2-1.7-0.8-2-1.4-2.1c-0.7-0.1-1.3,1.1-1.3,1.7s0.1,1.4,1.2,1.4C27.3,87.6,27.6,87.3,27.6,86.6"/>
	<path class="st0" d="M21.1,86.9c0.1-1.2-0.8-1.8-1.4-1.8c-0.6-0.1-1.1,0.8-1.2,1.7c-0.1,0.9,0.8,0.8,1.4,0.9
		C20.5,87.7,21,87.6,21.1,86.9"/>
	<path class="st0" d="M89.8,85.9c0.1,1.6-0.9,2-1.8,2.1s-1.1-1.1-1.2-1.8c-0.1-0.6,0.5-1.3,1.5-1.3C89.2,84.9,89.7,85.3,89.8,85.9"
		/>
	<path class="st0" d="M82.9,86.2c0.2,1.7-0.8,2-1.4,2.1c-0.7,0.1-1.3-1.1-1.3-1.7s0.1-1.4,1.2-1.4C82.5,85.2,82.8,85.5,82.9,86.2"/>
	<path class="st0" d="M76.3,85.9c0.1,1.2-0.8,1.8-1.4,1.8c-0.6,0.1-1.1-0.8-1.2-1.7c-0.1-0.9,0.8-0.8,1.4-0.9
		C75.7,85.1,76.3,85.2,76.3,85.9"/>
	<path class="st0" d="M46,86.1c-0.1,1.1,0.9,2.1,1.5,2s1.5-1,1.4-1.9s-1.1-1.1-1.6-1.1C46.8,85.1,46.1,85.4,46,86.1"/>
	<path class="st0" d="M53.1,86.9c-0.1-1.6,0.9-2,1.8-2.1c0.9-0.1,1.1,1.1,1.2,1.8c0.1,0.6-0.5,1.3-1.5,1.3
		C53.6,87.9,53.1,87.5,53.1,86.9"/>
	<path class="st0" d="M60,86.6c-0.2-1.7,0.8-2,1.4-2.1c0.7-0.1,1.3,1.1,1.3,1.7s-0.1,1.4-1.2,1.4C60.4,87.6,60,87.3,60,86.6"/>
	<path class="st0" d="M66.5,86.9c-0.1-1.2,0.8-1.8,1.4-1.8c0.6-0.1,1.1,0.8,1.2,1.7c0.1,0.9-0.8,0.8-1.4,0.9
		C67.1,87.7,66.6,87.6,66.5,86.9"/>
</g>
<polygon class="st0" points="8.8,5.4 17.4,5.5 17.2,2.9 8.8,2.8 "/>
<polygon class="st0" points="102.8,5.4 111.3,5.5 111.1,2.9 102.8,2.7 "/>
<polygon class="st0" points="21.8,5.4 29.9,5.4 30.1,3.5 21.8,2.8 "/>
<polygon class="st0" points="88.8,5.4 97,5.4 97.1,3.5 88.8,2.7 "/>
<polygon class="st0" points="35.7,5.4 41.5,5.4 41.3,3.6 34.6,3.6 "/>
<polygon class="st0" points="48.5,5.4 56.5,5.4 56.2,3.6 48.1,3.2 "/>
<polygon class="st0" points="61.8,5.4 70.2,5.4 69.4,3.6 61.8,3.6 "/>
<polygon class="st0" points="75,2.8 75.6,4.9 83.9,5.1 83.4,2.7 "/>
<g>
	<g>
		<path class="st0" d="M43.4,34.7c-4.5,6.6-5.2,7-10.7,7.6l0.7,2.7c1.2-0.1,2.3-0.2,3.5-0.2c1.9,0,2.9,0.3,5.8,1.6
			c-0.5,2.4-1.3,4.1-2.2,4.8c-0.2,0.2-4.4,1.2-5.2,1.2c-5,0-7.4-3.3-7.5-10.2c-6.7-1.5-10.2-4.8-10.2-9.7c0-5.4,4.5-11.9,10.5-15
			c1.9-1,3.5-1.5,5.4-1.5c7.3,0,13.3,4.4,13.3,9.7C46.7,29.3,46.2,30.6,43.4,34.7z M37.9,21.4c-5-2.1-10.3-0.3-13.4,4.2
			c-1.3,2.1-1.8,4.6-1.8,6.2c0,3.7,2.6,5.8,7.3,5.8c6,0,8.9-3.3,11.9-13.3C40.6,22.2,39.7,22.2,37.9,21.4z"/>
		<path class="st0" d="M67.5,40.4c-1.6,0.9-3.5,1.4-5.4,1.4c-6,0-10.6-5.2-10.6-11.8c0-1.3,0-2.7,0.2-4.2c1.2-0.5,1.6-0.8,2.6-0.8
			c1.5,0,2.1,0.4,3.6,1.1c0,0,1.9,9.9,5.2,9.9C67,36,69,31.6,69,22.8c0,0,1.3-1.8,2.6-2.1c2.8-0.7,5,2.5,5,5.4
			C76.6,31.2,72.6,37.5,67.5,40.4z"/>
		<path class="st0" d="M98.2,35.7c-1.3,0.3-7-0.2-10-1.4c0.2,1.4,0.1,5.9-0.8,8.3c0,0,6.4,0.9,8.8,3.4c-1.6,2.2-4.5,3.2-4.5,3.2
			c-1.4-0.1-8.5-1.9-11.4-2.5L80,44.2l1.6-7.3l0.5-15.4l0.8-7c0,0,2.9-1.1,4.8-1.3c2.9-0.3,6.4,1.2,7.3,1.4c0.4,0.8,0.6,1.4,0.6,1.9
			c0,1.6-5.5,2.4-6.2,2.2l-0.8,8.9c1.6,0.6,2.8,1,3.7,1.3c3.3,0.6,5,1,5.3,1.1c0.5,0.3,1.9,1,2.2,2.2C100,33.8,98.2,35.7,98.2,35.7z
			"/>
	</g>
	<g>
		<path class="st0" d="M16.8,74.5c-0.8,0.5-1.7,0.7-2.7,0.7c-2.7,0-4.9-2.1-4.9-4.9c0-2,1-4.9,2.2-6.8c0.8-1.2,1.3-1.2,2.3-1.6
			c3.4-1.1,7,2.9,7,6C20.8,70.4,19.1,73.1,16.8,74.5z M14.9,64.4c-0.2,0-2.5,1.8-2.9,4c-0.2,1-0.3,1.6-0.3,1.9
			c0,1.4,1.1,2.6,2.2,2.6s2.8-1.2,3.5-2.5c0.4-0.8,0.6-1.7,0.6-2.5C18.1,65.7,16.8,64.4,14.9,64.4z"/>
		<path class="st0" d="M30,70.7c-0.4,0-4.1-0.7-5.2-0.9c0,1.5,0.2,4,0.2,4.2c0,1.5-0.5,2.1-1.5,2.1c-0.7,0.1-1.6-0.7-1.6-0.8
			L22,63.4l-0.2-0.9c0,0,0.2-0.8,0.5-1.1c0.7-0.8,2-0.6,2.6-0.6c1.9,0,5.4,2,5.4,2.2c0,0.7-0.5,1.2-1.3,1.2c-0.2,0-2.9-0.3-4-0.3v3
			c0.9,0.5,1.6,0.8,2.7,1.1c1.4,0.3,2.3,0.1,3.5,0.4c0,0,0.6,1,0.4,1.5C31.5,70.6,30.5,70.7,30,70.7z"/>
		<path class="st0" d="M44.8,77.4c-0.4,0-2.8-2.1-5-3.7c-1.1-0.8-2.6-2.1-4.5-4.1c0.1,1.7,0.2,2.9,0.3,3.7c0.1,1.1,0.3,2.1,0.3,2.4
			s-0.1,0.9-0.3,1.5c0,0-1,0.3-1.4-0.1l-0.5-2.5c0,0-0.1-2.6-0.3-4.3c-0.2-1.8-0.7-4.1-0.7-4.6c0-4.1,2-6.5,5.4-6.5
			c3,0,5.5,2,5.5,4.4c0,1-0.2,2.1-0.7,3.4c-0.4,1-0.7,1.6-0.8,1.8c-0.3,0.4-1,0.9-2,1.4l5.9,4.9c0,0,0.6,1.1,0.2,1.6
			C45.7,77.5,45.1,77.4,44.8,77.4z M38.3,61.4c-1.2,0-1.9,0.5-2.6,1.4c-0.6,0.9-0.6,2-0.6,2.7c0,1.8,1.8,3.5,3.1,3.5
			c1.5,0,3.5-2.4,3.1-4.5C41.1,62.9,40,61.5,38.3,61.4z"/>
		<path class="st0" d="M50.9,68l-1.5,0.2c-0.1,2.1-0.3,3.1,1,3.9s2.8-2.8,2.8-2.8s0.8-0.2,1.2,0c0.5,0.3,0.6,1,0.6,1.3
			c0,0.4-0.6,1.3-1.2,2c-1.2,1.3-3.1,2.1-4,2.1c-0.8,0-1.5-0.7-2.3-2.3c0,0-1-2.4-1-3.9c0.1-1.3,0.9-3.3,0.9-3.3c1-2.1,2.2-3,4.4-3
			c1.9,0,3.5,1.4,3.5,3C55.4,67,53.7,68,50.9,68z M52.7,64.5c-0.2-0.4-0.7-0.3-1.2-0.2c-0.6,0.1-1.1,0.5-1.3,1.1
			c-0.1,0.3-0.1,0.7-0.1,0.7c1.2-0.2,1.9-0.3,2.6-0.9C52.7,65.2,52.9,64.7,52.7,64.5z"/>
		<path class="st0" d="M65.8,73.9c-2.3,1.2-3.4,1.5-4.8,1.5c-2.9,0-4.7-1.8-4.7-4.8c0-5.4,2.2-9,5.6-9c1,0,1.6,0.2,2.9,1
			c-0.3,1.1-0.5,1.6-1,1.6c-0.3,0-1.7-0.2-1.9-0.2c-1.5,0-2,2-2.3,3.7c-0.4,2.2-0.3,4.8,1.9,5.4c1.4,0.5,3.4-0.9,3.7-0.9
			c0.2,0,0.9-0.1,1.2,0.3C66.6,73.1,65.8,73.9,65.8,73.9z"/>
		<path class="st0" d="M75.1,70.4c-0.5,0.1-3-0.1-4.3-0.6c0.1,0.6,0,2.5-0.3,3.5c0,0,2.7,0.4,3.8,1.5c-0.7,1-1.9,1.4-1.9,1.4
			c-0.6,0-3.7-0.8-4.9-1.1L67.4,74l0.7-3.1l0.2-6.6l0.3-3c0,0,1.2-0.5,2.1-0.6c1.2-0.1,2.7,0.5,3.1,0.6c0.2,0.3,0.3,0.6,0.3,0.8
			c0,0.7-2.4,1-2.7,1l-0.3,3.8c0.7,0.3,1.2,0.5,1.6,0.5c1.4,0.3,2.2,0.4,2.3,0.5c0.2,0.1,0.8,0.4,1,0.9
			C75.9,69.6,75.1,70.4,75.1,70.4z"/>
		<path class="st0" d="M90.4,71.1L89.5,75c0,0.2-0.6,0.6-1.1,0.7c-0.6,0.1-0.8-0.1-1.4-0.4c0,0,0-1.6,0.1-2.6c0.2-1.9,1-2.8,1.4-4.7
			c0.2-1.2,1.5-2.5,0.5-3.2c-0.7-0.4-2,0.1-2,0.1l-0.8,2.3l-1,6.2c-0.1,0.6-0.7,0.9-1.4,1c-0.6,0.1-0.8-0.1-1.5-0.5
			c0,0,0-1.6,0.1-2.7c0.2-2.2,1.1-5.5,1.1-5.5s0.6-2.1-0.3-2.6c-1-0.5-1.9,0.4-2.2,1.8l-0.6,2.8l-0.4,2l-0.4,6.1c0,0-1,0.8-1.2,0.8
			c-0.9,0-1.2-0.6-1.2-2.5L78,60.2c0.3,0,0.5-0.1,0.8-0.1c0.7,0.1,0.8,0.4,1.2,1.3c1.4-0.5,2.5-0.7,3.1-0.7c1.2,0,2,0.4,3.6,1.8
			c0.9-0.2,1.8-0.4,2.5-0.4c1.9,0,3.1,1.2,3.1,3.1C91.8,65.9,90.4,71.1,90.4,71.1z"/>
		<path class="st0" d="M96.9,73.5c-2.1,0-3.8-2.2-3.8-4.7c0-2.9,2.3-5.2,5-5.2c1.3,0,2.1,0.5,3.4,2h0.3c0.3,1.1,0.6,1.7,0.5,2.8
			C102,71.2,98.5,73.5,96.9,73.5z M98.3,65.8c-0.9-0.1-1.2,0.7-1.7,1.5c-0.4,0.7-0.5,1.5-0.5,1.9c0,0.6,0.4,1.1,1.4,2.1
			c1.5-1,2-1.7,2-3.1C99.5,67.1,99.3,65.9,98.3,65.8z"/>
		<path class="st0" d="M111,74.7c-1,0.5-2.3,0.9-3.1,0.9c-1.8,0-3.1-1.1-4.7-3.7l0.8-0.8c0.7,0.2,3.9,2.1,4.4,2.1
			c1.6,0,4.4-2.4,3-3.4c-0.5-0.3-1.1-0.4-1.4-0.4c-2.6,0-4.1,0.5-5.5-1.3c-2-2.6,2.1-6.6,5.4-6.6c0.7,0,2.4,0.5,2.1,1.5
			c-0.1,0.4-0.7,0.8-0.7,0.8c-2.6,0-5.1,1.5-4.1,3.2c0.9,1.4,4.1,0.2,4.2,0.2c0.5,0,0.9,0.2,1.4,0.4c1,0.5,1.5,1.6,1.5,2.7
			C114.2,72,113.1,73.6,111,74.7z"/>
	</g>
</g>
</svg>
