
{
    "german":
    [
        {
            "imgFront": "img_white.jpg",
            "imgBack": "img_white.jpg",
            "imgButton": "wer_sind_wir_green.svg",
            "text":
            {
                "interview":
                [
                    "<p class='intro text_size_large text_margin_bottom'>EIN GESPRÄCH MIT DEM AKTUELLEN KOMMUNIKATIONS-VORSTAND GIBT EINBLICK IN DEN ADMINISTRATIVEN ABLAUF DES KINDERGARTENS UND DEN EINSATZ DER ELTERN.</p>",
                    "<p class='question text_size_medium text_margin_bottom'>DEN KINDERGARTEN GIBT ES SEIT 1994 UND ER WAR DIE ERSTE DEUTSCH-SPANISCHE ELTERNINITIATIVE IN MÜNCHEN. WIE KAM ES DENN ZU DEM NAMEN MARIPOSA?</p>",
                    "<p class='answer text_size_medium text_margin_bottom'>Um es vorwegzunehmen, wir sind sehr stolz darauf, dass es uns schon so lange gibt. Manche ehemaligen Kinder sind heute Studenten oder stehen schon mitten im Berufsleben. Aber zurück zu deiner Frage: Wir fanden die Metamorphose von einer Raupe zum Schmetterling im übertragenen Sinne eine tolle Interpretation für die Entwicklung unserer Kinder vom Kleinkind zum Schulkind.</p>",
                    "<p class='question text_size_medium text_margin_bottom'>DAS HÖRT SICH JA RICHTIG TOLL AN. UND WIE LÄSST SICH EINE DEUTSCH-SPANISCHE ELTERNINITIATIVE BESCHREIBEN? WAS KANN ICH MIR DARUNTER VORSTELLEN?</p>",
                    "<p class='answer text_size_medium text_margin_bottom'>Zunächst einmal ist grundsätzlich jeder bei uns willkommen! Schön ist natürlich, wenn ein Bezug zur spanischen bzw. lateinamerikanischen Sprache und Kultur besteht. Deutsch-spanisch bedeutet bei uns auch, dass wir ein bunt gemischtes Team aus spanischen, lateinamerikanischen und deutschen Erziehern und Kindern haben. Wir wollen den Kindern die ganze Vielfalt unserer multikulturellen Welt näherbringen, dazu zählt nicht nur die Sprache sondern auch Bräuche, Feste und nationale Gepflogenheiten.</p>",
                    "<p class='question text_size_medium text_margin_bottom'>WAS BEDEUTET ES MITGLIED IN EINER ELTERNINITIATIVE ZU SEIN?</p>",
                    "<p class='answer text_size_medium text_margin_bottom'>Ganz ehrlich: viel Arbeit. Wie Du schon sagst, sind wir eine Elterninitiative. Das bedeutet, das Mitarbeiten aller Eltern ist für einen reibungslosen Ablauf des Kindergartenalltags wichtig. Allen Eltern wird bei Eintritt ein Gremium zugeteilt. Man hat jedoch auch die Möglichkeit Wünsche zu äußern, wenn man zum Beispiel ein toller Gärtner ist oder gut mit Zahlen umgehen kann.</p>",
                    "<p class='question text_size_medium text_margin_bottom'>PUH, DAS HÖRT SICH ZEITAUFWENDIG UND NACH EINER RIESEN-VERANTWORTUNG AN, ODER?</p>",
                    "<p class='answer text_size_medium text_margin_bottom'>Ja, das ist es, hat aber wiederum den Vorteil, dass die Eltern mitgestalten und mitentscheiden dürfen. Es trägt vor allem der Vorstand eine große Verantwortung, deswegen haben wir das Vorstandsamt auch auf fünf Schultern verteilt: Es gibt jeweils einen Vorstand für Finanzen, Personal, Kommunikation, Ein- und Austritte und Gremien.</p>",
                    "<p class='question text_size_medium text_margin_bottom'>IHR HABT HIER EIN SCHÖNES FREISTEHENDES HAUS MIT GARTEN, WIE VIEL PLATZ STEHT DENN DEN KINDERN ZUR VERFÜGUNG?</p>",
                    "<p class='answer text_size_medium text_margin_bottom'>Den 42 Kindern stehen im Haus rund 320 qm auf drei Stockwerken zur Verfügung. Also, Platz ist reichlich vorhanden. Und im 300 qm großen sonnigen Garten mit Sandkasten, Häuschen, Rutsch- und Kletteranlage stehen wunderschöne alte Bäume. <span id='text_where' class='intro link'>WO SIND WIR</span></p>",
                    "<p class='question text_size_medium text_margin_bottom'>DU SAGST, IHR HABT 42 KINDER, WIE IST DER BETREUUNGSSCHLÜSSEL?</p>",
                    "<p class='answer text_size_medium text_margin_bottom'>Der ist sehr gut bei uns, das ist uns auch wichtig und da sehen wir unseren großen Vorteil. Im Kindergarten werden acht Kinder von einer Erzieherin betreut. In der Kinderkrippe sind es sogar nur 5 Kinder pro Erzieherin. Also ein deutlich besserer Betreuungsschlüssel als in den städtischen Einrichtungen. Hinzu kommt, dass wir zwei Springer haben, die je nach Bedarf die Erzieher in den verschiedenen Gruppen unterstützen und noch eine Minijobberin. Ganz vergessen habe ich zu erwähnen, dass Angie, unsere Musiklehrerin, auch zu unserem Team an Erzieherinnen gehört. Sie kommt einmal die Woche und unterrichtet unsere Kinder in musikalischer Früherziehung, die übrigens von der Musikschule München anerkannt ist. Um es noch einmal zusammenzufassen: Wir haben für unsere Kinder zehn feste Erzieherinnen, eine Musiklehrerin, und eine Minijobberin. <span id='text_team' class='intro link'>DAS TEAM</span></p>",
                    "<p class='question text_size_medium text_margin_bottom'>DAS HÖRT SICH WIRKLICH GUT AN. MIT SO EINEM BETREUUNGSSCHLÜSSEL SIND DIE KINDER RICHTIG GUT BETREUT! UND WIE SIEHT ES MIT DEM LEIBLICHEN WOHL DER KINDER AUS? GIBT ES EIN BESONDERES ERNÄHRUNGSKONZEPT?</p>",
                    "<p class='answer text_size_medium text_margin_bottom'>Natürlich steht das Wohlbefinden der Kinder immer im Vordergrund. Deshalb verwenden wir ausschließlich Bioprodukte. Wir werden jeden Tag von der Ökokiste frisch beliefert. Die gute Seele dabei ist unsere Köchin Andrea, eine ehemalige Mariposa-Mama, die täglich das Frühstück, Mittagessen und die Brotzeit für unsere Kinder zubereitet.</p>",
                    "<p class='question text_size_medium text_margin_bottom'>EINE EIGENE KÖCHIN FÜR DIE KINDER. DAS IST JA TOLL! EIN WEITERES WICHTIGES THEMA FÜR DIE ELTERN SIND DIE ÖFFNUNGSZEITEN.</p>",
                    "<p class='answer text_size_medium text_margin_bottom'>Der Kindergarten und die Kinderkrippe haben von Mo-Fr geöffnet, wobei der Kindergarten jeweils von 7:45 bis 17:30 Uhr und die Krippe (für Kinder ab 1 Jahr) von 7:45 bis 17:00h geöffnet haben, beide Freitag allerdings nur bis 14:30 Uhr. Die Kinder gehen dann ab dem Monat, in dem sie 3 Jahre werden, in den Kindergarten.</p>",
                    "<p class='question text_size_medium text_margin_bottom'>DAS IST WIRKLICH EINE GROßE ZEITSPANNE DER ÖFFNUNGSZEITEN. DA STELLT SICH MIR NATÜRLICH GLEICH DIE FRAGE NACH DEN KOSTEN.</p>",
                    "<p class='answer text_size_medium text_margin_bottom'>Natürlich ist es so, dass ein solcher Betreuungsschlüssel zu etwas mehr Kosten führt als in einer städtischen Einrichtung. Faktisch gesprochen bedeutet das für den Kindergarten: Die Betreuung von z.B. 7:45 bis 14:30 Uhr kostet 255,– Euro, und bis 17.30 Uhr 305,– Euro. Bei der Kinderkrippe entstehen z.B. bei der Betreuung von 7:45 bis 14:30 Uhr Kosten von 415,– Euro und bei der Betreuung bis 17:00 Uhr Kosten von 475,– Euro, jeweils plus Essensgeld. <a class='intro link' href='/static/documents/mariposa_datenfakten.pdf' target='_blank'>DATEN UND FAKTEN</a></p>",
                    "<p class='question text_size_medium text_margin_bottom'>VIELEN DANK FÜR DIE GANZEN INFORMATIONEN. JETZT WERDE ICH MICH NOCH DURCH EURE WEBSITE KLICKEN UND MEINE BEWERBUNG AN EURE E-MAIL ADRESSE SENDEN. <span id='text_contact' class='intro link'>KONTAKT</span> UND <a class='intro link' href='/static/documents/mariposa_anmeldeformular.pdf' target='_blank'>ANMELDEFORMULAR</a></p>"                 
                ],
                "quotes":
                [
                    "WIR WOLLEN DEN KINDERN DIE GANZE VIELFALT UNSERER MULTIKULTURELLEN WELT NÄHERBRINGEN.",
                    "ALLE ELTERN GESTALTEN UND ENTSCHEIDEN MIT.",
                    "DAS HAUS HAT RUND 320 QM AUF DREI STOCKWERKEN UND 300 QM GARTEN.",
                    "UNSERE KÖCHIN WIRD JEDEN TAG VON DER ÖKOKISTE FRISCH BELIEFERT."
                ]
            },
            "galery":
            [
                "monster_03.gif",
                "spiegelung_haeuschen_toy.jpg",
                "garten_sandkasten.jpg",
                "kinder_essen.jpg"
            ]
        },
        {
            "imgFront": "rosi_front.jpg",
            "imgBack": "rosi_back.jpg",
            "imgButton": "was_bitten_wir_green.svg",
            "text":
            {
                "interview":
                [
                    "<p class='intro text_size_large text_margin_bottom'>EIN GESPRÄCH MIT ROSI, DER LEITERIN DES KINDERGARTENS, GIBT EINBLICK IN DIE TÄGLICHE ARBEIT MIT DEN KINDERN.</p>",
                    "<p class='question text_size_medium text_margin_bottom'>WIE KAM ES ZUR GRÜNDUNG VON MARIPOSA UND WIE KAMST DU ZUM KINDERGARTEN?</p>",
                    "<p class='answer text_size_medium text_margin_bottom'>Ursprünglich stammte die Idee von drei zweisprachigen Familien (deutsch/spanisch). Sie haben sich zusammengefunden, um eine Krippe (KiTa) mit einer begrenzten Anzahl von Kindern zu gründen, um eine persönlichere Betreuung sicherzustellen und weil die Kinder Spanisch als zweite Sprache beibehalten sollten. Zu Beginn hatten sie nur eine Erzieherin. Ich stieß zu der Zeit dazu, als ich damals am Goethe Institut Deutsch lernen wollte und bei der Vorstellungsrunde jeder erzählte, was er macht und ich sagte, dass ich Kindergärtnerin sei. Ein Chilene sprach mich nach der Stunde an und berichtete mir, dass seine Frau gerade jemanden suche, um eine Krippe mit zehn Kindern zu eröffnen und ich mich doch unbedingt vorstellen sollte. Mein Glück war, dass ich ihnen gut gefiel und dies beruhte sofort auf Gegenseitigkeit. So habe ich begonnen und wir haben uns damals um bis zu zehn Kinder gekümmert, die heute so um die 24 Jahre alt sind und mit denen wir uns bis heute immer wieder treffen und uns an Geburtstagen und Verabredungen sehen.</p>",
                    "<p class='question text_size_medium text_margin_bottom'>WIE SETZT IHR BEI MARIPOSA DAS BILINGUALE KONZEPT UM?</p>",
                    "<p class='answer text_size_medium text_margin_bottom'>Mariposa folgt dem Konzept: Eine zweisprachige Bildung trägt zu einer zukunftsorientierten Entwicklung unserer Kinder in einem Europa der offenen Türen bei. Was ja offensichtlich auch immer wichtiger wird. Alle ErzieherInnen sind zweisprachig und eine von Ihnen spricht nur Deutsch mit den Kindern. Mit Angie, unserer Musiklehrerin, lernen die Kinder die deutsche Kultur durch die Musik näher kennen. Wir feiern auch das Oktoberfest „in der Kinderversion“, St. Martin, Nikolaus, Weihnachten, Ostern, Fasching, usw. Eine Sprache, eine Bezugsperson. Wir versuchen, dass die Kinder die Sprachen nicht mischen, und dass sie wissen, mit wem sie Deutsch und mit wem sie Spanisch sprechen können.</p>",
                    "<p class='question text_size_medium text_margin_bottom'>WO LIEGT DER SCHWERPUNKT EURER ARBEIT? <a class='intro link' href='/static/documents/mariposa_paedagogisches_konzept.pdf' target='_blank'>PÄDAGOGISCHES KONZEPT</a></p>",
                    "<p class='answer text_size_medium text_margin_bottom'>Die Sprache ist unser Schwerpunkt. Die Kinder sollen beide Sprachen auf lustige Weise lernen, d.h. spielerisch lernen. Wir fördern den Lernprozess beider Sprachen durch verschiedene Aktivitäten, wie z. B. Musik, Malerei, Theater, Bastelarbeiten, Ausflüge, usw. Durch Spielen lernen Kinder andere Kinder aus unterschiedlichen Kulturkreisen kennen und mit der gleichen Sprache lernen sie sich untereinander verstehen. Wir kreieren Geschichten, Briefe, forschen aktiv mit allen Sinnen: Darüber kann man mehr erfahren, wenn man sich unser pädagogisches Konzept durchliest. Dort erläutern wir auch, wie sich die ErzieherInnen vorbereiten und weiterbilden, unsere Denkansätze, die städtische Supervision und vieles mehr. Wir pflegen hier im Kindergarten viele Traditionen, nicht nur die deutschen, sondern auch lateinamerikanische und europäische/spanische durch die Sprache.</p>",
                    "<p class='question text_size_medium text_margin_bottom'>WIE GESTALTET SICH EIN TYPISCHER TAGESABLAUF?</p>",
                    "<p class='answer text_size_medium text_margin_bottom'>Wir begrüßen und empfangen die Kinder herzlich, mit einem einladenden und gemütlichem Morgenkreis, wir frühstücken zusammen und teilen uns dann in unsere Gruppen auf, um daran zu arbeiten, was für den Tag geplant ist. Vielleicht ein Ausflug, Malen, Theater spielen, Basteln, ein Märchen vorlesen, ... Draußen im Garten spielen alle zusammen, Krippenkinder haben ihren eigens für sie gestalteten separaten Gartenteil, dann gehen wir zum Händewaschen, essen zu Mittag, ruhen uns aus oder schlafen und gehen nach dem Nachmittagsprogramm (tageswechselnde Workshops) nach Hause.</p>",
                    "<p class='question text_size_medium text_margin_bottom'>WAS IST DAS BESONDERE AN MARIPOSA?</p>",
                    "<p class='answer text_size_medium text_margin_bottom'>Es fällt schwer, nur eine Sache hervorzuheben. Wir haben kleine Gruppen mit zwei HaupterzieherInnen, darunter ErzieherInnen die schon seit vielen Jahren zusammenarbeiten, einen Betreuungsschlüssel, der seinesgleichen sucht. Endlich haben wir seit diesem Jahr einen Erzieher in unserer Mariposa-Familie aufnehmen dürfen. Ja, das ist das Besondere. Wir sind eine Familie und die Kinder spüren das. Wir haben unsere tollen Feste: Mini-Olympiaden, Sommerfest, Weihnachtsfest, auf denen die Kinder immer wunderschöne Vorstellungen für die Eltern und Familienangehörigen darbieten. Außerdem haben wir eine eigene Köchin. Die Kinder essen sehr gut und ausgewogen, immer frische Speisen. Angie, die Musiklehrerin, hatten wir schon erwähnt, auch sie ist ganz besonders. Es ist auch wichtig zu wissen, dass die Eltern direkt auf die Erziehung der Kinder Einfluss nehmen können. Das ist das tolle an einer Elterninitiative. Nicht in allen Kindergärten können Eltern so sehr wie bei uns an den Aktivitäten teilhaben.</p>",
                    "<p class='question text_size_medium text_margin_bottom'>WARUM WÜRDEST DU DEINE KINDER IN DIESEN KINDERGARTEN SCHICKEN?</p>",
                    "<p class='answer text_size_medium text_margin_bottom'>Weil man die Kinder respektvoll behandelt, sehr herzlich und liebevoll, was für mich das Wichtigste ist und auch wegen der Sprache, die ist essenziell. Es herrscht eine sehr familiäre Atmosphäre und ein Gefühl untereinander, das hilft, den Kindern die Werte zu vermitteln, die wir ihnen Nahe bringen wollen. Immer unter Anbetracht eines hohen akademischen und kulturellen Niveaus.</p>",
                    "<p class='question text_size_medium text_margin_bottom'>LIEBE ROSI, WIR DANKEN DIR FÜR DAS GESPRÄCH!</p>"
                ],
                "quotes":
                [
                    "EINE ZWEISPRACHIGE  BILDUNG TRÄGT ZU EINER ZUKUNFTSORIENTIERTEN ENTWICKLUNG DES KINDES BEI.",
                    "WIR KREIEREN GESCHICHTEN, BRIEFE, FORSCHEN AKTIV MIT ALLEN SINNEN.",
                    "JA, DAS IST DAS BESONDERE. WIR SIND EINE FAMILIE UND DIE KINDER SPÜREN DAS."
                ]
            },
            "galery":
            [
                "monster_04.gif",
                "innen_kreis_abril.jpg",
                "innen_celeste_tuer.jpg"
            ]
        }
    ],
    "spanish":
    [
        {
            "imgFront": "img_white.jpg",
            "imgBack": "img_white.jpg",
            "imgButton": "quienes_somos_green.svg",
            "text": 
            {
                "interview": 
                [
                    "<p class='intro text_size_large text_margin_bottom'>La siguiente entrevista con el actual director de comunicación nos ofrece una idea del funcionamiento administrativo de la guardería y del trabajo que realizan los padres.</p>",
                    "<p class='question text_size_medium text_margin_bottom'>La guardería existe desde el año 1994 y fue la primera asociación de padres hispano-alemana en Múnich. ¿De dónde viene el nombre Mariposa?</p>",
                    "<p class='answer text_size_medium text_margin_bottom'>Ya te adelanto que estamos muy orgullosos de existir desde hace tanto tiempo. Algunos de nuestros antiguos alumnos son ya estudiantes y otros incluso trabajan. Pero volviendo a tu pregunta, nos gustó la idea de la metamorfosis de la oruga en mariposa. Pensamos que esa metamorfosis refleja el desarrollo de los niños a lo largo de sus años en la guardería, entran siendo muy pequeñitos y al salir se han convertido en auténticos preescolares.</p>",
                    "<p class='question text_size_medium text_margin_bottom'>¡Qué bien suena!¿Y cómo describiría una asociación de padres bilingüe? ¿Cómo me la debo imaginar?</p>",
                    "<p class='answer text_size_medium text_margin_bottom'>¡En principio todos son bienvenidos! Naturalmente apreciamos que se tenga una afinidad con la lengua y la cultura española y latinoamericana. Para nosotros alemán-español significa que tenemos un grupo multiétnico español, latinoamericano y alemán tanto de maestros como de niños. Queremos enseñar a nuestros niños la diversidad de nuestro mundo multicultural que abarca no sólo el idioma, sino también las tradiciones, las fiestas y las costumbres nacionales.</p>",
                    "<p class='question text_size_medium text_margin_bottom'>¿Qué implica ser miembro de una asociación de padres?</p>",
                    "<p class='answer text_size_medium text_margin_bottom'>Sinceramente: mucho trabajo. En una asociación de padres la cooperación de estos es primordial para que la rutina diaria de la guardería se desarrolle sin problemas. A todos los padres se les asigna un gremio de trabajo a su entrada, aunque ellos pueden expresar sus gustos. Por ejemplo nos ayuda saber si alguien es buen jardinero o si a alguien le gustan los números, así podemos repartir mejor los trabajos.</p>",
                    "<p class='question text_size_medium text_margin_bottom'>Uy, eso suena a mucho trabajo y a una gran responsabilidad, ¿no?</p>",
                    "<p class='answer text_size_medium text_margin_bottom'>Es verdad, pero por otro lado tiene la ventaja de que los padres pueden participar en la toma de decisiones. La junta directiva es la que asume la mayor responsabilidad y por eso está compuesta por cinco personas: el director financiero, el de personal, el de comunicación, el de entradas y salidas y el de gremios.</p>",
                    "<p class='question text_size_medium text_margin_bottom'>Ustedes tienen aquí una casa enorme y preciosa con jardín. ¿De cuánto espacio disponen los niños?</p>",
                    "<p class='answer text_size_medium text_margin_bottom'>Los 42 niños tienen 320m² dentro de la casa, repartidos en tres pisos, disponen de mucho espacio. Además disfrutan de un soleado jardín de unos 300m² con arenero, casita de juegos, tobogán y mini rocódromo, rodeado todo ello de hermosos árboles centenarios.<br><span id='text_where' class='intro link'>DÓNDE ESTAMOS</span></p>",
                    "<p class='question text_size_medium text_margin_bottom'>Dice que hay 42 niños, ¿cómo se reparte el equipo docente?</p>",
                    "<p class='answer text_size_medium text_margin_bottom'>Nuestro concepto de atención a los niños es realmente bueno, para nosotros es muy importante mantenerlo y es lo que nos diferencia de otras guarderías. En Mariposa una maestra se ocupa de ocho niños. En el grupo de los más pequeños hay tan sólo cinco niños por cada maestra. En fin, una atención bastante mejor que la que ofrecen las instituciones estatales. A esto se suman nuestros dos maestros de “apoyo”, que ayudan a los maestros principales según las necesidades del momento. Y, además, tenemos un empleado adicional que trabaja algunas horas a la semana (Minijobber). Casi se me olvida mencionar que Angie, nuestra maestra de música, también forma parte de nuestro equipo pedagógico. Ella viene una vez a la semana e imparte educación musical temprana (musikalischer Früherziehung), que es reconocida por la Musikschule München (escuela oficial de música de Múnich). En resumen: tenemos a disposición de nuestros pequeños a 10 maestros fijos, una maestra de música,una Minijobberin. <span id='text_team' class='intro link'>EL EQUIPO</span></p>",
                    "<p class='question text_size_medium text_margin_bottom'>Suena fenomenal. ¡Con un equipo así los niños realmente están muy bien cuidados! ¿Y cómo es el tema de la comida de los niños? ¿Tienen un concepto alimenticio especial?</p>",
                    "<p class='answer text_size_medium text_margin_bottom'>El bienestar de los niños está siempre en primer plano. Por ello cocinamos exclusivamente con productos ecológicos. Todos los días recibimos una Ökokiste (cesta ecológica) con productos frescos. Nuestra hada madrina es nuestra cocinera Andrea, una antigua mamá de Mariposa. Ella prepara a diario el desayuno, la comida y la merienda para nuestros niños.</p>",
                    "<p class='question text_size_medium text_margin_bottom'>¡UNA COCINERA PROPIA ES UN LUJO! OTRO TEMA IMPORTANTE PARA LOS PADRES SON LOS HORARIOS?</p>",
                    "<p class='answer text_size_medium text_margin_bottom'>El jardín infantil (Kindergarten) y la guardería (Kinderkrippe) están abiertos de lunes a viernes. El jardín infantil desde las 7:45 hasta las 17:30 hrs, mientras que la guardería desde las 7:45 hasta las 17:00 hrs, los viernes ambos grupos salen a las 14:30 hrs. A partir de los 3 años los niños pasan de la guardería al jardín infantil.</p>",
                    "<p class='question text_size_medium text_margin_bottom'>Los horarios de apertura son muy amplios, lo que me lleva a preguntar por los precios.</p>",
                    "<p class='answer text_size_medium text_margin_bottom'>Una atención así implica naturalmente un precio mayor que el de las instituciones estatales. En el jardín infantil, una plaza de mediodía desde las 7:45 hasta las 14:30 hrs cuesta 255 euros, y hasta las 17:30 hrs 305 euros. Para la guardería, el horario de 7:45 hasta las 14:30 hrs cuesta 415 euros, y hasta las 17:00 hrs 475 euros, más el costo de la comida en cada caso. <a class='intro link' href='/static/documents/mariposa_datenfakten.pdf' target='_blank'>DATOS Y HECHOS</a></p>",
                    "<p class='question text_size_medium text_margin_bottom'>Gracias por toda las información. Ahora voy a navegar por su página web y mandaré mi solicitud al correo electrónico: <span id='text_contact' class='intro link'>contacto</span> y <a class='intro link' href='/static/documents/mariposa_formulario_de_registro.pdf' target='_blank'>formulario de registro.</a></p>"
                    ],
                    "quotes":
                    [
                        "Queremos enseñar a nuestros niños la diversidad de nuestro mundo multicultural.",
                        "Todos los padres organizan y toman decisiones.",
                        "La casa cuenta con 320 m² repartidos en tres plantas y un jardín de 300 m².",
                        "Nuestra cocinera recibe todo los días una canasta ecológica (Ökokiste) con productos frescos."
                    ]
            },
            "galery":
            [
                "monster_03.gif",
                "spiegelung_haeuschen_toy.jpg",
                "garten_sandkasten.jpg",
                "kinder_essen.jpg"
            ]
        },
        {
            "imgFront": "rosi_front.jpg",
            "imgBack": "rosi_back.jpg",
            "imgButton": "que_ofrecemos_green.svg",
            "text": 
            {
                "interview":
                [
                    "<p class='intro text_size_large text_margin_bottom'>Una conversación con Rosi, directora de la guardería, nos da una idea de cómo es el trabajo diario con los niños.</p>",
                    "<p class='question text_size_medium text_margin_bottom'>Cómo se fundó Mariposa y cómo llegaste tú al Kindergarten?</p>",
                    "<p class='answer text_size_medium text_margin_bottom'>Fue la idea de tres familias bilingües (alemán-español). Se pusieron en contacto para formar una guardería que sea un grupo con niños reducidos para garantizar una atención personalizada y que los niños no pierdan el castellano como segundo idioma. Ellos tenían una maestra al inicio. Yo (Rosi) llevo aquí cuando entro al instituto Goethe para aprender alemán y en la presentación del grupo todos hablamos de nuestras ocupaciones y cuando dije que soy Maestra de niños inicial un hombre chileno se me acerca después de las clases y me conto que su mujer está buscando a alguien para abrir la guardería con 10 niños y que por favor me presentare. Por suerte les caí muy bien y fue mutuo, así empecé y llegamos a cuidar hasta 10 niños que hoy tienen alrededor de 24 años y hasta el día de hoy nos seguimos encontrando en los cumpleaños y salidas.</p>",
                    "<p class='question text_size_medium text_margin_bottom'>Cómo aplican el concepto bilingüe en Mariposa?</p>",
                    "<p class='answer text_size_medium text_margin_bottom'>Mariposa sigue al concepto: “Una educación bilingüe contribuye al desarrollo a futuro de nuestros niños en Europa con puertas abiertas”. Lo que obviamente es cada vez más importante. Todos los maestros son bilingües y tenemos una maestra (Judith) que sólo habla alemán con los niños. Con la maestra de música (Angie) los niños aprenden la cultura alemana a través de la música. También festejamos el Oktoberfest “versión para niños”, St Martin, Nicolaus, Navidad, Pascuas, carnaval, etc. “Un idioma, una persona”. Intentamos de que los niños no mezclen los idiomas, y que ellos sepan con quien hablar alemán y con quien castellano.</p>",
                    "<p class='question text_size_medium text_margin_bottom'>Cuál es el punto escencial de vuestro trabajo? <a class='intro link' href='/static/documents/mariposa_paedagogisches_konzept.pdf' target='_blank'>CONCEPTO PEDAGÓGICO</a></p>",
                    "<p class='answer text_size_medium text_margin_bottom'>El idioma es nuestra parte principal. Los niños deben aprender ambos idiomas de manera divertida, es decir “aprender jugando”. Tratamos de fomentar el aprendizaje de ambos idiomas mediante una serie de actividades, como por ejemplo:  música, pintura, teatro, manualidades, paseos, etc. Mediante juegos los niños conocen a otros niños de diferentes culturas y con el mismo idioma aprenden a entenderse. Hacemos también cuentos, cartas, exploramos activamente con los sentidos, se puede aprender más leyendo nuestro concepto pedagógico. Explicamos también como las maestras se preparan, se siguen formando, reflecciones, supervisión  comunal  y mucho más. Tenemos muchas tradiciones aquí en el Kindergarten, no sólo alemanas sino también latinoamericanas y europeas/hispanas qué vivimos a través del idioma.</p>",
                    "<p class='question text_size_medium text_margin_bottom'>Cuál es una rutina diaria típica?</p>",
                    "<p class='answer text_size_medium text_margin_bottom'>Saludamos y recibimos a los niños con cariño, haciendo un circulo bonito y agradable, desayunando juntos y luego nos dividimos cada uno en nuestros grupos para trabajar lo que tengamos programado para el día. Puede ser un paseo, puede ser pintar, teatro, manualidades,  un cuento, luego nos reunimos en el jardín para jugar todos juntos, (los niños de la guardería ya pronto tendrán su parte separada del jardín especialmente diseñada para sus necesidades), después vamos al baño para lavarnos, almorzamos, descansamos o dorminos y luego de los talleres qué varían por día, vamos a casa.</p>",
                    "<p class='question text_size_medium text_margin_bottom'>Qué es lo que hace especial a Mariposa?</p>",
                    "<p class='answer text_size_medium text_margin_bottom'>Es difícil mencionar una cosa. Tenemos grupos pequeños con dos maestras guía, entre ellas maestras que trabajan hace muchos años  juntas. Tenemos una llave de personal incomparablemente elevada. Finalmente este año pudimos integrar un maestro a nuestra familia Mariposa. Eso es lo especial. Somos una familia y los chicos lo sienten. Tenemos nuestras fiestas espectaculares: Mini-olimpiadas, fiestas de verano y navidad donde los niños hacen una actuación maravillosa y preparan algo para los padres. Tenemos una cocinera propia, los niños comen muy bien y variado;  siempre comida fresca. Ya nombramos a Angie, la maestra de música, quien también es muy especial. Es importante también que los padres tienen participación directa en la educación de sus niños, eso es lo bonito de una “Elterninitiative”, no en todos los kindergarten pueden los padres participar como aquí de las actividades.</p>",
                    "<p class='question text_size_medium text_margin_bottom'>Por qué mandarías tú a tus hijos a este Kindergarten?</p>",
                    "<p class='answer text_size_medium text_margin_bottom'>Porque a los niños se les trata con respeto, cariño que para mí es lo más importante y también por el idioma, es lo esencial. Hay un sentimiento y atmósfera muy familiar entre todos que ayuda a transmitir los mejores valores a los niños que siempre queremos inculcar. Siempre hay un nivel cultural y académico alto que ayuda mucho nuestro trabajo.</p>",
                    "<p class='question text_size_medium text_margin_bottom'>Querida Rosi, te damos gracias por la entrevista!</p>"

                ],
                "quotes": 
                [
                    "Una educación bilingüe contribuye al desarrollo a futuro de nuestros niños.",
                    "Tratamos de fomentar el aprendizaje de ambos idiomas mediante una serie de actividades.",
                    "Eso es lo especial. Somos una familia y los chicos lo sienten."
                ]
            },
            "galery":
            [
                "monster_04.gif",
                "innen_kreis_abril.jpg",
                "innen_celeste_tuer.jpg"
            ]
        }
    ] 
}
